%YAML 1.1
%TAG !u! tag:unity3d.com,2011:
--- !u!1 &5801957333643691096
GameObject:
  m_ObjectHideFlags: 0
  m_CorrespondingSourceObject: {fileID: 0}
  m_PrefabInstance: {fileID: 0}
  m_PrefabAsset: {fileID: 0}
  serializedVersion: 6
  m_Component:
  - component: {fileID: 8163943413568854970}
  - component: {fileID: 5283657337704178668}
  m_Layer: 31
  m_Name: Bioma B
  m_TagString: Untagged
  m_Icon: {fileID: 0}
  m_NavMeshLayer: 0
  m_StaticEditorFlags: 0
  m_IsActive: 1
--- !u!4 &8163943413568854970
Transform:
  m_ObjectHideFlags: 0
  m_CorrespondingSourceObject: {fileID: 0}
  m_PrefabInstance: {fileID: 0}
  m_PrefabAsset: {fileID: 0}
  m_GameObject: {fileID: 5801957333643691096}
  m_LocalRotation: {x: 0, y: 0, z: 0, w: 1}
  m_LocalPosition: {x: 0, y: 0, z: 0}
  m_LocalScale: {x: 1, y: 1, z: 1}
  m_Children:
  - {fileID: 9027519923027614924}
  m_Father: {fileID: 0}
  m_RootOrder: 0
  m_LocalEulerAnglesHint: {x: 0, y: 0, z: 0}
--- !u!156049354 &5283657337704178668
Grid:
  m_ObjectHideFlags: 0
  m_CorrespondingSourceObject: {fileID: 0}
  m_PrefabInstance: {fileID: 0}
  m_PrefabAsset: {fileID: 0}
  m_GameObject: {fileID: 5801957333643691096}
  m_Enabled: 1
  m_CellSize: {x: 1, y: 1, z: 0}
  m_CellGap: {x: 0, y: 0, z: 0}
  m_CellLayout: 0
  m_CellSwizzle: 0
--- !u!1 &6401888461893826441
GameObject:
  m_ObjectHideFlags: 0
  m_CorrespondingSourceObject: {fileID: 0}
  m_PrefabInstance: {fileID: 0}
  m_PrefabAsset: {fileID: 0}
  serializedVersion: 6
  m_Component:
  - component: {fileID: 9027519923027614924}
  - component: {fileID: 6813905273549523161}
  - component: {fileID: 2300276526732206749}
  m_Layer: 0
  m_Name: Layer1
  m_TagString: Untagged
  m_Icon: {fileID: 0}
  m_NavMeshLayer: 0
  m_StaticEditorFlags: 0
  m_IsActive: 1
--- !u!4 &9027519923027614924
Transform:
  m_ObjectHideFlags: 0
  m_CorrespondingSourceObject: {fileID: 0}
  m_PrefabInstance: {fileID: 0}
  m_PrefabAsset: {fileID: 0}
  m_GameObject: {fileID: 6401888461893826441}
  m_LocalRotation: {x: -0, y: -0, z: -0, w: 1}
  m_LocalPosition: {x: 0, y: 0, z: 0}
  m_LocalScale: {x: 1, y: 1, z: 1}
  m_Children: []
  m_Father: {fileID: 8163943413568854970}
  m_RootOrder: 0
  m_LocalEulerAnglesHint: {x: 0, y: 0, z: 0}
--- !u!1839735485 &6813905273549523161
Tilemap:
  m_ObjectHideFlags: 0
  m_CorrespondingSourceObject: {fileID: 0}
  m_PrefabInstance: {fileID: 0}
  m_PrefabAsset: {fileID: 0}
  m_GameObject: {fileID: 6401888461893826441}
  m_Enabled: 1
  m_Tiles:
  - first: {x: -2, y: -6, z: 0}
    second:
      serializedVersion: 2
      m_TileIndex: 50
      m_TileSpriteIndex: 50
      m_TileMatrixIndex: 0
      m_TileColorIndex: 0
      m_TileObjectToInstantiateIndex: 65535
      dummyAlignment: 0
      m_AllTileFlags: 1073741825
  - first: {x: -1, y: -6, z: 0}
    second:
      serializedVersion: 2
      m_TileIndex: 51
      m_TileSpriteIndex: 51
      m_TileMatrixIndex: 0
      m_TileColorIndex: 0
      m_TileObjectToInstantiateIndex: 65535
      dummyAlignment: 0
      m_AllTileFlags: 1073741825
  - first: {x: 0, y: -6, z: 0}
    second:
      serializedVersion: 2
      m_TileIndex: 52
      m_TileSpriteIndex: 52
      m_TileMatrixIndex: 0
      m_TileColorIndex: 0
      m_TileObjectToInstantiateIndex: 65535
      dummyAlignment: 0
      m_AllTileFlags: 1073741825
  - first: {x: 1, y: -6, z: 0}
    second:
      serializedVersion: 2
      m_TileIndex: 53
      m_TileSpriteIndex: 53
      m_TileMatrixIndex: 0
      m_TileColorIndex: 0
      m_TileObjectToInstantiateIndex: 65535
      dummyAlignment: 0
      m_AllTileFlags: 1073741825
  - first: {x: -2, y: -5, z: 0}
    second:
      serializedVersion: 2
      m_TileIndex: 46
      m_TileSpriteIndex: 46
      m_TileMatrixIndex: 0
      m_TileColorIndex: 0
      m_TileObjectToInstantiateIndex: 65535
      dummyAlignment: 0
      m_AllTileFlags: 1073741825
  - first: {x: -1, y: -5, z: 0}
    second:
      serializedVersion: 2
      m_TileIndex: 47
      m_TileSpriteIndex: 47
      m_TileMatrixIndex: 0
      m_TileColorIndex: 0
      m_TileObjectToInstantiateIndex: 65535
      dummyAlignment: 0
      m_AllTileFlags: 1073741825
  - first: {x: 0, y: -5, z: 0}
    second:
      serializedVersion: 2
      m_TileIndex: 48
      m_TileSpriteIndex: 48
      m_TileMatrixIndex: 0
      m_TileColorIndex: 0
      m_TileObjectToInstantiateIndex: 65535
      dummyAlignment: 0
      m_AllTileFlags: 1073741825
  - first: {x: 1, y: -5, z: 0}
    second:
      serializedVersion: 2
      m_TileIndex: 49
      m_TileSpriteIndex: 49
      m_TileMatrixIndex: 0
      m_TileColorIndex: 0
      m_TileObjectToInstantiateIndex: 65535
      dummyAlignment: 0
      m_AllTileFlags: 1073741825
  - first: {x: -2, y: -4, z: 0}
    second:
      serializedVersion: 2
      m_TileIndex: 42
      m_TileSpriteIndex: 39
      m_TileMatrixIndex: 0
      m_TileColorIndex: 0
      m_TileObjectToInstantiateIndex: 65535
      dummyAlignment: 0
      m_AllTileFlags: 1073741825
  - first: {x: -1, y: -4, z: 0}
    second:
      serializedVersion: 2
      m_TileIndex: 18
      m_TileSpriteIndex: 40
      m_TileMatrixIndex: 0
      m_TileColorIndex: 0
      m_TileObjectToInstantiateIndex: 65535
      dummyAlignment: 0
      m_AllTileFlags: 1073741825
  - first: {x: 0, y: -4, z: 0}
    second:
      serializedVersion: 2
      m_TileIndex: 19
      m_TileSpriteIndex: 41
      m_TileMatrixIndex: 0
      m_TileColorIndex: 0
      m_TileObjectToInstantiateIndex: 65535
      dummyAlignment: 0
      m_AllTileFlags: 1073741825
  - first: {x: 1, y: -4, z: 0}
    second:
      serializedVersion: 2
      m_TileIndex: 20
      m_TileSpriteIndex: 42
      m_TileMatrixIndex: 0
      m_TileColorIndex: 0
      m_TileObjectToInstantiateIndex: 65535
      dummyAlignment: 0
      m_AllTileFlags: 1073741825
  - first: {x: 2, y: -4, z: 0}
    second:
      serializedVersion: 2
      m_TileIndex: 43
      m_TileSpriteIndex: 43
      m_TileMatrixIndex: 0
      m_TileColorIndex: 0
      m_TileObjectToInstantiateIndex: 65535
      dummyAlignment: 0
      m_AllTileFlags: 1073741825
  - first: {x: 3, y: -4, z: 0}
    second:
      serializedVersion: 2
      m_TileIndex: 44
      m_TileSpriteIndex: 44
      m_TileMatrixIndex: 0
      m_TileColorIndex: 0
      m_TileObjectToInstantiateIndex: 65535
      dummyAlignment: 0
      m_AllTileFlags: 1073741825
  - first: {x: 4, y: -4, z: 0}
    second:
      serializedVersion: 2
      m_TileIndex: 45
      m_TileSpriteIndex: 45
      m_TileMatrixIndex: 0
      m_TileColorIndex: 0
      m_TileObjectToInstantiateIndex: 65535
      dummyAlignment: 0
      m_AllTileFlags: 1073741825
  - first: {x: -2, y: -3, z: 0}
    second:
      serializedVersion: 2
      m_TileIndex: 14
      m_TileSpriteIndex: 32
      m_TileMatrixIndex: 0
      m_TileColorIndex: 0
      m_TileObjectToInstantiateIndex: 65535
      dummyAlignment: 0
      m_AllTileFlags: 1073741825
  - first: {x: -1, y: -3, z: 0}
    second:
      serializedVersion: 2
      m_TileIndex: 15
      m_TileSpriteIndex: 33
      m_TileMatrixIndex: 0
      m_TileColorIndex: 0
      m_TileObjectToInstantiateIndex: 65535
      dummyAlignment: 0
      m_AllTileFlags: 1073741825
  - first: {x: 0, y: -3, z: 0}
    second:
      serializedVersion: 2
      m_TileIndex: 16
      m_TileSpriteIndex: 34
      m_TileMatrixIndex: 0
      m_TileColorIndex: 0
      m_TileObjectToInstantiateIndex: 65535
      dummyAlignment: 0
      m_AllTileFlags: 1073741825
  - first: {x: 1, y: -3, z: 0}
    second:
      serializedVersion: 2
      m_TileIndex: 17
      m_TileSpriteIndex: 35
      m_TileMatrixIndex: 0
      m_TileColorIndex: 0
      m_TileObjectToInstantiateIndex: 65535
      dummyAlignment: 0
      m_AllTileFlags: 1073741825
  - first: {x: 2, y: -3, z: 0}
    second:
      serializedVersion: 2
      m_TileIndex: 39
      m_TileSpriteIndex: 36
      m_TileMatrixIndex: 0
      m_TileColorIndex: 0
      m_TileObjectToInstantiateIndex: 65535
      dummyAlignment: 0
      m_AllTileFlags: 1073741825
  - first: {x: 3, y: -3, z: 0}
    second:
      serializedVersion: 2
      m_TileIndex: 40
      m_TileSpriteIndex: 37
      m_TileMatrixIndex: 0
      m_TileColorIndex: 0
      m_TileObjectToInstantiateIndex: 65535
      dummyAlignment: 0
      m_AllTileFlags: 1073741825
  - first: {x: 4, y: -3, z: 0}
    second:
      serializedVersion: 2
      m_TileIndex: 41
      m_TileSpriteIndex: 38
      m_TileMatrixIndex: 0
      m_TileColorIndex: 0
      m_TileObjectToInstantiateIndex: 65535
      dummyAlignment: 0
      m_AllTileFlags: 1073741825
  - first: {x: -2, y: -2, z: 0}
    second:
      serializedVersion: 2
      m_TileIndex: 10
      m_TileSpriteIndex: 25
      m_TileMatrixIndex: 0
      m_TileColorIndex: 0
      m_TileObjectToInstantiateIndex: 65535
      dummyAlignment: 0
      m_AllTileFlags: 1073741825
  - first: {x: -1, y: -2, z: 0}
    second:
      serializedVersion: 2
      m_TileIndex: 11
      m_TileSpriteIndex: 26
      m_TileMatrixIndex: 0
      m_TileColorIndex: 0
      m_TileObjectToInstantiateIndex: 65535
      dummyAlignment: 0
      m_AllTileFlags: 1073741825
  - first: {x: 0, y: -2, z: 0}
    second:
      serializedVersion: 2
      m_TileIndex: 12
      m_TileSpriteIndex: 27
      m_TileMatrixIndex: 0
      m_TileColorIndex: 0
      m_TileObjectToInstantiateIndex: 65535
      dummyAlignment: 0
      m_AllTileFlags: 1073741825
  - first: {x: 1, y: -2, z: 0}
    second:
      serializedVersion: 2
      m_TileIndex: 13
      m_TileSpriteIndex: 28
      m_TileMatrixIndex: 0
      m_TileColorIndex: 0
      m_TileObjectToInstantiateIndex: 65535
      dummyAlignment: 0
      m_AllTileFlags: 1073741825
  - first: {x: 2, y: -2, z: 0}
    second:
      serializedVersion: 2
      m_TileIndex: 36
      m_TileSpriteIndex: 29
      m_TileMatrixIndex: 0
      m_TileColorIndex: 0
      m_TileObjectToInstantiateIndex: 65535
      dummyAlignment: 0
      m_AllTileFlags: 1073741825
  - first: {x: 3, y: -2, z: 0}
    second:
      serializedVersion: 2
      m_TileIndex: 37
      m_TileSpriteIndex: 30
      m_TileMatrixIndex: 0
      m_TileColorIndex: 0
      m_TileObjectToInstantiateIndex: 65535
      dummyAlignment: 0
      m_AllTileFlags: 1073741825
  - first: {x: 4, y: -2, z: 0}
    second:
      serializedVersion: 2
      m_TileIndex: 38
      m_TileSpriteIndex: 31
      m_TileMatrixIndex: 0
      m_TileColorIndex: 0
      m_TileObjectToInstantiateIndex: 65535
      dummyAlignment: 0
      m_AllTileFlags: 1073741825
  - first: {x: -2, y: -1, z: 0}
    second:
      serializedVersion: 2
      m_TileIndex: 7
      m_TileSpriteIndex: 15
      m_TileMatrixIndex: 0
      m_TileColorIndex: 0
      m_TileObjectToInstantiateIndex: 65535
      dummyAlignment: 0
      m_AllTileFlags: 1073741825
  - first: {x: -1, y: -1, z: 0}
    second:
      serializedVersion: 2
      m_TileIndex: 8
      m_TileSpriteIndex: 16
      m_TileMatrixIndex: 0
      m_TileColorIndex: 0
      m_TileObjectToInstantiateIndex: 65535
      dummyAlignment: 0
      m_AllTileFlags: 1073741825
  - first: {x: 0, y: -1, z: 0}
    second:
      serializedVersion: 2
      m_TileIndex: 9
      m_TileSpriteIndex: 17
      m_TileMatrixIndex: 0
      m_TileColorIndex: 0
      m_TileObjectToInstantiateIndex: 65535
      dummyAlignment: 0
      m_AllTileFlags: 1073741825
  - first: {x: 1, y: -1, z: 0}
    second:
      serializedVersion: 2
      m_TileIndex: 29
      m_TileSpriteIndex: 18
      m_TileMatrixIndex: 0
      m_TileColorIndex: 0
      m_TileObjectToInstantiateIndex: 65535
      dummyAlignment: 0
      m_AllTileFlags: 1073741825
  - first: {x: 2, y: -1, z: 0}
    second:
      serializedVersion: 2
      m_TileIndex: 30
      m_TileSpriteIndex: 19
      m_TileMatrixIndex: 0
      m_TileColorIndex: 0
      m_TileObjectToInstantiateIndex: 65535
      dummyAlignment: 0
      m_AllTileFlags: 1073741825
  - first: {x: 3, y: -1, z: 0}
    second:
      serializedVersion: 2
      m_TileIndex: 31
      m_TileSpriteIndex: 20
      m_TileMatrixIndex: 0
      m_TileColorIndex: 0
      m_TileObjectToInstantiateIndex: 65535
      dummyAlignment: 0
      m_AllTileFlags: 1073741825
  - first: {x: 4, y: -1, z: 0}
    second:
      serializedVersion: 2
      m_TileIndex: 32
      m_TileSpriteIndex: 21
      m_TileMatrixIndex: 0
      m_TileColorIndex: 0
      m_TileObjectToInstantiateIndex: 65535
      dummyAlignment: 0
      m_AllTileFlags: 1073741825
  - first: {x: 5, y: -1, z: 0}
    second:
      serializedVersion: 2
      m_TileIndex: 33
      m_TileSpriteIndex: 22
      m_TileMatrixIndex: 0
      m_TileColorIndex: 0
      m_TileObjectToInstantiateIndex: 65535
      dummyAlignment: 0
      m_AllTileFlags: 1073741825
  - first: {x: 6, y: -1, z: 0}
    second:
      serializedVersion: 2
      m_TileIndex: 34
      m_TileSpriteIndex: 23
      m_TileMatrixIndex: 0
      m_TileColorIndex: 0
      m_TileObjectToInstantiateIndex: 65535
      dummyAlignment: 0
      m_AllTileFlags: 1073741825
  - first: {x: 7, y: -1, z: 0}
    second:
      serializedVersion: 2
      m_TileIndex: 35
      m_TileSpriteIndex: 24
      m_TileMatrixIndex: 0
      m_TileColorIndex: 0
      m_TileObjectToInstantiateIndex: 65535
      dummyAlignment: 0
      m_AllTileFlags: 1073741825
  - first: {x: -2, y: 0, z: 0}
    second:
      serializedVersion: 2
      m_TileIndex: 5
      m_TileSpriteIndex: 5
      m_TileMatrixIndex: 0
      m_TileColorIndex: 0
      m_TileObjectToInstantiateIndex: 65535
      dummyAlignment: 0
      m_AllTileFlags: 1073741825
  - first: {x: -1, y: 0, z: 0}
    second:
      serializedVersion: 2
      m_TileIndex: 6
      m_TileSpriteIndex: 6
      m_TileMatrixIndex: 0
      m_TileColorIndex: 0
      m_TileObjectToInstantiateIndex: 65535
      dummyAlignment: 0
      m_AllTileFlags: 1073741825
  - first: {x: 0, y: 0, z: 0}
    second:
      serializedVersion: 2
      m_TileIndex: 21
      m_TileSpriteIndex: 7
      m_TileMatrixIndex: 0
      m_TileColorIndex: 0
      m_TileObjectToInstantiateIndex: 65535
      dummyAlignment: 0
      m_AllTileFlags: 1073741825
  - first: {x: 1, y: 0, z: 0}
    second:
      serializedVersion: 2
      m_TileIndex: 22
      m_TileSpriteIndex: 8
      m_TileMatrixIndex: 0
      m_TileColorIndex: 0
      m_TileObjectToInstantiateIndex: 65535
      dummyAlignment: 0
      m_AllTileFlags: 1073741825
  - first: {x: 2, y: 0, z: 0}
    second:
      serializedVersion: 2
      m_TileIndex: 23
      m_TileSpriteIndex: 9
      m_TileMatrixIndex: 0
      m_TileColorIndex: 0
      m_TileObjectToInstantiateIndex: 65535
      dummyAlignment: 0
      m_AllTileFlags: 1073741825
  - first: {x: 3, y: 0, z: 0}
    second:
      serializedVersion: 2
      m_TileIndex: 24
      m_TileSpriteIndex: 10
      m_TileMatrixIndex: 0
      m_TileColorIndex: 0
      m_TileObjectToInstantiateIndex: 65535
      dummyAlignment: 0
      m_AllTileFlags: 1073741825
  - first: {x: 4, y: 0, z: 0}
    second:
      serializedVersion: 2
      m_TileIndex: 25
      m_TileSpriteIndex: 11
      m_TileMatrixIndex: 0
      m_TileColorIndex: 0
      m_TileObjectToInstantiateIndex: 65535
      dummyAlignment: 0
      m_AllTileFlags: 1073741825
  - first: {x: 5, y: 0, z: 0}
    second:
      serializedVersion: 2
      m_TileIndex: 26
      m_TileSpriteIndex: 12
      m_TileMatrixIndex: 0
      m_TileColorIndex: 0
      m_TileObjectToInstantiateIndex: 65535
      dummyAlignment: 0
      m_AllTileFlags: 1073741825
  - first: {x: 6, y: 0, z: 0}
    second:
      serializedVersion: 2
      m_TileIndex: 27
      m_TileSpriteIndex: 13
      m_TileMatrixIndex: 0
      m_TileColorIndex: 0
      m_TileObjectToInstantiateIndex: 65535
      dummyAlignment: 0
      m_AllTileFlags: 1073741825
  - first: {x: 7, y: 0, z: 0}
    second:
      serializedVersion: 2
      m_TileIndex: 28
      m_TileSpriteIndex: 14
      m_TileMatrixIndex: 0
      m_TileColorIndex: 0
      m_TileObjectToInstantiateIndex: 65535
      dummyAlignment: 0
      m_AllTileFlags: 1073741825
  - first: {x: -2, y: 1, z: 0}
    second:
      serializedVersion: 2
      m_TileIndex: 0
      m_TileSpriteIndex: 0
      m_TileMatrixIndex: 0
      m_TileColorIndex: 0
      m_TileObjectToInstantiateIndex: 65535
      dummyAlignment: 0
      m_AllTileFlags: 1073741825
  - first: {x: -1, y: 1, z: 0}
    second:
      serializedVersion: 2
      m_TileIndex: 1
      m_TileSpriteIndex: 1
      m_TileMatrixIndex: 0
      m_TileColorIndex: 0
      m_TileObjectToInstantiateIndex: 65535
      dummyAlignment: 0
      m_AllTileFlags: 1073741825
  - first: {x: 0, y: 1, z: 0}
    second:
      serializedVersion: 2
      m_TileIndex: 2
      m_TileSpriteIndex: 2
      m_TileMatrixIndex: 0
      m_TileColorIndex: 0
      m_TileObjectToInstantiateIndex: 65535
      dummyAlignment: 0
      m_AllTileFlags: 1073741825
  - first: {x: 1, y: 1, z: 0}
    second:
      serializedVersion: 2
      m_TileIndex: 3
      m_TileSpriteIndex: 3
      m_TileMatrixIndex: 0
      m_TileColorIndex: 0
      m_TileObjectToInstantiateIndex: 65535
      dummyAlignment: 0
      m_AllTileFlags: 1073741825
  - first: {x: 2, y: 1, z: 0}
    second:
      serializedVersion: 2
      m_TileIndex: 4
      m_TileSpriteIndex: 4
      m_TileMatrixIndex: 0
      m_TileColorIndex: 0
      m_TileObjectToInstantiateIndex: 65535
      dummyAlignment: 0
      m_AllTileFlags: 1073741825
  m_AnimatedTiles: {}
  m_TileAssetArray:
  - m_RefCount: 1
    m_Data: {fileID: 11400000, guid: 10045b28279849c46b629c711335d03b, type: 2}
  - m_RefCount: 1
    m_Data: {fileID: 11400000, guid: 4d82ca4b52d828a4389d90b9fd2a1642, type: 2}
  - m_RefCount: 1
    m_Data: {fileID: 11400000, guid: cef06ed925fed3149928a2ab20805a9b, type: 2}
  - m_RefCount: 1
    m_Data: {fileID: 11400000, guid: ca6b6c3a825f0704a8bcc058f65790f3, type: 2}
  - m_RefCount: 1
    m_Data: {fileID: 11400000, guid: 64d1920d05e275d40bb1e66b7f34376d, type: 2}
  - m_RefCount: 1
    m_Data: {fileID: 11400000, guid: c5ab238abdd90894c8d3618e8200ee25, type: 2}
  - m_RefCount: 1
    m_Data: {fileID: 11400000, guid: c1c2d1171b5a34249aac81d43a458e9f, type: 2}
  - m_RefCount: 1
    m_Data: {fileID: 11400000, guid: 98f8c0a8546689a4fa78fb41a8db2d62, type: 2}
  - m_RefCount: 1
    m_Data: {fileID: 11400000, guid: e7e1c41d6edbd4945803bc61f7c3ac30, type: 2}
  - m_RefCount: 1
    m_Data: {fileID: 11400000, guid: 53a43cfd8ba3e9446a0e88408125960c, type: 2}
  - m_RefCount: 1
    m_Data: {fileID: 11400000, guid: 2ff683d2980fd5641a642d111494f714, type: 2}
  - m_RefCount: 1
    m_Data: {fileID: 11400000, guid: d38bdb3ed52856d4f8dd02eaf7cb257d, type: 2}
  - m_RefCount: 1
    m_Data: {fileID: 11400000, guid: 93e2587948dbb3e4da3869e8ae39b1fe, type: 2}
  - m_RefCount: 1
    m_Data: {fileID: 11400000, guid: a0e36dffd1755744ca8b419ca584ce27, type: 2}
  - m_RefCount: 1
    m_Data: {fileID: 11400000, guid: bc1f9dad7eb39a345a3bfb0b27165d37, type: 2}
  - m_RefCount: 1
    m_Data: {fileID: 11400000, guid: a33ce619230cdc7408f32c740d44d84e, type: 2}
  - m_RefCount: 1
    m_Data: {fileID: 11400000, guid: 3fed10c9d5e0df844aa506356ae38811, type: 2}
  - m_RefCount: 1
    m_Data: {fileID: 11400000, guid: ccfecc0fffc7b5240b8b72ae25c020f3, type: 2}
  - m_RefCount: 1
    m_Data: {fileID: 11400000, guid: 2c8023cf671e2e64db276e42b359bb20, type: 2}
  - m_RefCount: 1
    m_Data: {fileID: 11400000, guid: ec559660c5814834ca4caa1b3312fb68, type: 2}
  - m_RefCount: 1
    m_Data: {fileID: 11400000, guid: 874f2d5ab850dee488bcf5c942a1686b, type: 2}
  - m_RefCount: 1
    m_Data: {fileID: 11400000, guid: cb1786f81f1307c40bbb6ef78c26937e, type: 2}
  - m_RefCount: 1
    m_Data: {fileID: 11400000, guid: bbb25d892fc6623469ad41c45e3bf88f, type: 2}
  - m_RefCount: 1
    m_Data: {fileID: 11400000, guid: a7beb3b820062be4898cfee6d2582669, type: 2}
  - m_RefCount: 1
    m_Data: {fileID: 11400000, guid: 6db7241acca137049aefef8895ce2119, type: 2}
  - m_RefCount: 1
    m_Data: {fileID: 11400000, guid: ca5b3887c93a5a94fae703f869a3aa4e, type: 2}
  - m_RefCount: 1
    m_Data: {fileID: 11400000, guid: 2fd84204848304e4ba4361256fede668, type: 2}
  - m_RefCount: 1
    m_Data: {fileID: 11400000, guid: f468f28f4b1f2184f90e13781de81dd3, type: 2}
  - m_RefCount: 1
    m_Data: {fileID: 11400000, guid: 1f2e00074229f8849b72b5a1b0efacfb, type: 2}
  - m_RefCount: 1
    m_Data: {fileID: 11400000, guid: 10a0447faf9b1f14b84fb43ea8ea3bc8, type: 2}
  - m_RefCount: 1
    m_Data: {fileID: 11400000, guid: bc0d59725c03659448fca04a82f5aa8e, type: 2}
  - m_RefCount: 1
    m_Data: {fileID: 11400000, guid: 8b3a2f75e9ce24545bdd5ccfa6359269, type: 2}
  - m_RefCount: 1
    m_Data: {fileID: 11400000, guid: 18b12c18c6127764b9e2ff6867bd5dca, type: 2}
  - m_RefCount: 1
    m_Data: {fileID: 11400000, guid: 65c634a04ad639d478c7ee58268eee22, type: 2}
  - m_RefCount: 1
    m_Data: {fileID: 11400000, guid: 1f67bcfb702346640bc7dc96aa9d3a57, type: 2}
  - m_RefCount: 1
    m_Data: {fileID: 11400000, guid: 1a5af9e7ff0636745b674afee17905f0, type: 2}
  - m_RefCount: 1
    m_Data: {fileID: 11400000, guid: c584839efb8953449a779a5d1e2bf35a, type: 2}
  - m_RefCount: 1
    m_Data: {fileID: 11400000, guid: 26f949d8e68f92c42a55322bbefaddac, type: 2}
  - m_RefCount: 1
    m_Data: {fileID: 11400000, guid: f6a179785db58cb409aa23a4b3b17ff3, type: 2}
  - m_RefCount: 1
    m_Data: {fileID: 11400000, guid: caa6917761a2bde418e0dc76b25693d9, type: 2}
  - m_RefCount: 1
    m_Data: {fileID: 11400000, guid: e15beb9733fb1eb47ad545f17a246262, type: 2}
  - m_RefCount: 1
    m_Data: {fileID: 11400000, guid: a1aeae60a12480342b31d60c58c1039a, type: 2}
  - m_RefCount: 1
    m_Data: {fileID: 11400000, guid: 12c0eaa379819844ebcc3cf742299e08, type: 2}
  - m_RefCount: 1
    m_Data: {fileID: 11400000, guid: b366073b2f80dc845ac841480b79ec94, type: 2}
  - m_RefCount: 1
    m_Data: {fileID: 11400000, guid: 6a5b1a9a7a397234fa8065264c510d58, type: 2}
  - m_RefCount: 1
    m_Data: {fileID: 11400000, guid: a96aecbd70f7cfc46be1df2f13c9ce8e, type: 2}
  - m_RefCount: 1
    m_Data: {fileID: 11400000, guid: b5aa89aa4c8b8a44b95c9d44ff534160, type: 2}
  - m_RefCount: 1
    m_Data: {fileID: 11400000, guid: 6da81dbe34bc7b84ea4f41fed67a5beb, type: 2}
  - m_RefCount: 1
    m_Data: {fileID: 11400000, guid: 9b487a95efc825d4a82736d11e8adaa9, type: 2}
  - m_RefCount: 1
    m_Data: {fileID: 11400000, guid: 2eccd7039b0f9214da246ea33614e513, type: 2}
  - m_RefCount: 1
    m_Data: {fileID: 11400000, guid: 8a820ef67eb127244bc2e5f9c316d69a, type: 2}
  - m_RefCount: 1
    m_Data: {fileID: 11400000, guid: fb2cdcf84a8932640857d7d84a286aa5, type: 2}
  - m_RefCount: 1
    m_Data: {fileID: 11400000, guid: 9148778c712f41944b10c489e242a154, type: 2}
  - m_RefCount: 1
    m_Data: {fileID: 11400000, guid: 08303fa967f412e46a8b89f617de6913, type: 2}
  m_TileSpriteArray:
  - m_RefCount: 1
    m_Data: {fileID: 189425467586937001, guid: e556b2f08b3b9724991ecd51963c10e6, type: 3}
  - m_RefCount: 1
    m_Data: {fileID: 4562825164325281876, guid: e556b2f08b3b9724991ecd51963c10e6, type: 3}
  - m_RefCount: 1
    m_Data: {fileID: -8874488842408984130, guid: e556b2f08b3b9724991ecd51963c10e6, type: 3}
  - m_RefCount: 1
    m_Data: {fileID: 7427148460954831993, guid: e556b2f08b3b9724991ecd51963c10e6, type: 3}
  - m_RefCount: 1
    m_Data: {fileID: -3468268773131920588, guid: e556b2f08b3b9724991ecd51963c10e6, type: 3}
  - m_RefCount: 1
    m_Data: {fileID: 5354017440462051030, guid: e556b2f08b3b9724991ecd51963c10e6, type: 3}
  - m_RefCount: 1
    m_Data: {fileID: -7864624026807979001, guid: e556b2f08b3b9724991ecd51963c10e6, type: 3}
  - m_RefCount: 1
    m_Data: {fileID: 8091957024703941437, guid: e556b2f08b3b9724991ecd51963c10e6, type: 3}
  - m_RefCount: 1
    m_Data: {fileID: 6847655547585368617, guid: e556b2f08b3b9724991ecd51963c10e6, type: 3}
  - m_RefCount: 1
    m_Data: {fileID: -8212782368400325104, guid: e556b2f08b3b9724991ecd51963c10e6, type: 3}
  - m_RefCount: 1
    m_Data: {fileID: 585215998897409605, guid: e556b2f08b3b9724991ecd51963c10e6, type: 3}
  - m_RefCount: 1
    m_Data: {fileID: 2102837986539386951, guid: e556b2f08b3b9724991ecd51963c10e6, type: 3}
  - m_RefCount: 1
    m_Data: {fileID: 8293437158605371620, guid: e556b2f08b3b9724991ecd51963c10e6, type: 3}
  - m_RefCount: 1
    m_Data: {fileID: -6525585721704007604, guid: e556b2f08b3b9724991ecd51963c10e6, type: 3}
  - m_RefCount: 1
    m_Data: {fileID: 7291740999913001439, guid: e556b2f08b3b9724991ecd51963c10e6, type: 3}
  - m_RefCount: 1
    m_Data: {fileID: -5820057030056615393, guid: e556b2f08b3b9724991ecd51963c10e6, type: 3}
  - m_RefCount: 1
    m_Data: {fileID: -4677264039088954335, guid: e556b2f08b3b9724991ecd51963c10e6, type: 3}
  - m_RefCount: 1
    m_Data: {fileID: 3255512991036383063, guid: e556b2f08b3b9724991ecd51963c10e6, type: 3}
  - m_RefCount: 1
    m_Data: {fileID: -7313225251311128054, guid: e556b2f08b3b9724991ecd51963c10e6, type: 3}
  - m_RefCount: 1
    m_Data: {fileID: -7110594108669634984, guid: e556b2f08b3b9724991ecd51963c10e6, type: 3}
  - m_RefCount: 1
    m_Data: {fileID: -5653023123362075772, guid: e556b2f08b3b9724991ecd51963c10e6, type: 3}
  - m_RefCount: 1
    m_Data: {fileID: 275643199960765808, guid: e556b2f08b3b9724991ecd51963c10e6, type: 3}
  - m_RefCount: 1
    m_Data: {fileID: -1254804129632123003, guid: e556b2f08b3b9724991ecd51963c10e6, type: 3}
  - m_RefCount: 1
    m_Data: {fileID: 6078291038262058052, guid: e556b2f08b3b9724991ecd51963c10e6, type: 3}
  - m_RefCount: 1
    m_Data: {fileID: 1510946124485741576, guid: e556b2f08b3b9724991ecd51963c10e6, type: 3}
  - m_RefCount: 1
    m_Data: {fileID: -290851421063478602, guid: e556b2f08b3b9724991ecd51963c10e6, type: 3}
  - m_RefCount: 1
    m_Data: {fileID: 7637802828851063237, guid: e556b2f08b3b9724991ecd51963c10e6, type: 3}
  - m_RefCount: 1
    m_Data: {fileID: 5904505487159917372, guid: e556b2f08b3b9724991ecd51963c10e6, type: 3}
  - m_RefCount: 1
    m_Data: {fileID: 2491487505362029595, guid: e556b2f08b3b9724991ecd51963c10e6, type: 3}
  - m_RefCount: 1
    m_Data: {fileID: 9221632703806861325, guid: e556b2f08b3b9724991ecd51963c10e6, type: 3}
  - m_RefCount: 1
    m_Data: {fileID: -4038574382728264417, guid: e556b2f08b3b9724991ecd51963c10e6, type: 3}
  - m_RefCount: 1
    m_Data: {fileID: -4924085556791094859, guid: e556b2f08b3b9724991ecd51963c10e6, type: 3}
  - m_RefCount: 1
    m_Data: {fileID: 3979573658104446160, guid: e556b2f08b3b9724991ecd51963c10e6, type: 3}
  - m_RefCount: 1
    m_Data: {fileID: -1799847012850445826, guid: e556b2f08b3b9724991ecd51963c10e6, type: 3}
  - m_RefCount: 1
    m_Data: {fileID: 2814335722255649949, guid: e556b2f08b3b9724991ecd51963c10e6, type: 3}
  - m_RefCount: 1
    m_Data: {fileID: 6499764185828632077, guid: e556b2f08b3b9724991ecd51963c10e6, type: 3}
  - m_RefCount: 1
    m_Data: {fileID: 1005558495219544130, guid: e556b2f08b3b9724991ecd51963c10e6, type: 3}
  - m_RefCount: 1
    m_Data: {fileID: 821519734849928056, guid: e556b2f08b3b9724991ecd51963c10e6, type: 3}
  - m_RefCount: 1
    m_Data: {fileID: -6253146560270012068, guid: e556b2f08b3b9724991ecd51963c10e6, type: 3}
  - m_RefCount: 1
    m_Data: {fileID: 6301976389671605208, guid: e556b2f08b3b9724991ecd51963c10e6, type: 3}
  - m_RefCount: 1
    m_Data: {fileID: 7267179276523704507, guid: e556b2f08b3b9724991ecd51963c10e6, type: 3}
  - m_RefCount: 1
    m_Data: {fileID: 5642395758459290183, guid: e556b2f08b3b9724991ecd51963c10e6, type: 3}
  - m_RefCount: 1
    m_Data: {fileID: 2850431757902430568, guid: e556b2f08b3b9724991ecd51963c10e6, type: 3}
  - m_RefCount: 1
    m_Data: {fileID: -870370190773507895, guid: e556b2f08b3b9724991ecd51963c10e6, type: 3}
  - m_RefCount: 1
    m_Data: {fileID: 9143135962430296236, guid: e556b2f08b3b9724991ecd51963c10e6, type: 3}
  - m_RefCount: 1
    m_Data: {fileID: -66672231211328411, guid: e556b2f08b3b9724991ecd51963c10e6, type: 3}
  - m_RefCount: 1
    m_Data: {fileID: -6588486380942460533, guid: e556b2f08b3b9724991ecd51963c10e6, type: 3}
  - m_RefCount: 1
    m_Data: {fileID: -6188563652027728305, guid: e556b2f08b3b9724991ecd51963c10e6, type: 3}
  - m_RefCount: 1
    m_Data: {fileID: 785224013828220074, guid: e556b2f08b3b9724991ecd51963c10e6, type: 3}
  - m_RefCount: 1
    m_Data: {fileID: 970613668330963226, guid: e556b2f08b3b9724991ecd51963c10e6, type: 3}
  - m_RefCount: 1
    m_Data: {fileID: -5625159260932423262, guid: e556b2f08b3b9724991ecd51963c10e6, type: 3}
  - m_RefCount: 1
    m_Data: {fileID: -3277164434705956230, guid: e556b2f08b3b9724991ecd51963c10e6, type: 3}
  - m_RefCount: 1
    m_Data: {fileID: 1664955199018702244, guid: e556b2f08b3b9724991ecd51963c10e6, type: 3}
  - m_RefCount: 1
    m_Data: {fileID: -6579254722157501281, guid: e556b2f08b3b9724991ecd51963c10e6, type: 3}
  m_TileMatrixArray:
  - m_RefCount: 54
    m_Data:
      e00: 1
      e01: 0
      e02: 0
      e03: 0
      e10: 0
      e11: 1
      e12: 0
      e13: 0
      e20: 0
      e21: 0
      e22: 1
      e23: 0
      e30: 0
      e31: 0
      e32: 0
      e33: 1
  m_TileColorArray:
  - m_RefCount: 54
    m_Data: {r: 1, g: 1, b: 1, a: 1}
  m_TileObjectToInstantiateArray: []
  m_AnimationFrameRate: 1
  m_Color: {r: 1, g: 1, b: 1, a: 1}
  m_Origin: {x: -2, y: -6, z: 0}
  m_Size: {x: 10, y: 8, z: 1}
  m_TileAnchor: {x: 0.5, y: 0.5, z: 0}
  m_TileOrientation: 0
  m_TileOrientationMatrix:
    e00: 1
    e01: 0
    e02: 0
    e03: 0
    e10: 0
    e11: 1
    e12: 0
    e13: 0
    e20: 0
    e21: 0
    e22: 1
    e23: 0
    e30: 0
    e31: 0
    e32: 0
    e33: 1
--- !u!483693784 &2300276526732206749
TilemapRenderer:
  m_ObjectHideFlags: 0
  m_CorrespondingSourceObject: {fileID: 0}
  m_PrefabInstance: {fileID: 0}
  m_PrefabAsset: {fileID: 0}
  m_GameObject: {fileID: 6401888461893826441}
  m_Enabled: 1
  m_CastShadows: 0
  m_ReceiveShadows: 0
  m_DynamicOccludee: 0
  m_MotionVectors: 1
  m_LightProbeUsage: 0
  m_ReflectionProbeUsage: 0
  m_RayTracingMode: 0
  m_RayTraceProcedural: 0
  m_RenderingLayerMask: 1
  m_RendererPriority: 0
  m_Materials:
  - {fileID: 2100000, guid: a97c105638bdf8b4a8650670310a4cd3, type: 2}
  m_StaticBatchInfo:
    firstSubMesh: 0
    subMeshCount: 0
  m_StaticBatchRoot: {fileID: 0}
  m_ProbeAnchor: {fileID: 0}
  m_LightProbeVolumeOverride: {fileID: 0}
  m_ScaleInLightmap: 1
  m_ReceiveGI: 1
  m_PreserveUVs: 0
  m_IgnoreNormalsForChartDetection: 0
  m_ImportantGI: 0
  m_StitchLightmapSeams: 1
  m_SelectedEditorRenderState: 0
  m_MinimumChartSize: 4
  m_AutoUVMaxDistance: 0.5
  m_AutoUVMaxAngle: 89
  m_LightmapParameters: {fileID: 0}
  m_SortingLayerID: 0
  m_SortingLayer: 0
  m_SortingOrder: 0
  m_ChunkSize: {x: 32, y: 32, z: 32}
  m_ChunkCullingBounds: {x: 0, y: 0, z: 0}
  m_MaxChunkCount: 16
  m_MaxFrameAge: 16
  m_SortOrder: 0
  m_Mode: 0
  m_DetectChunkCullingBounds: 0
  m_MaskInteraction: 0
--- !u!114 &2657905643097362506
MonoBehaviour:
  m_ObjectHideFlags: 0
  m_CorrespondingSourceObject: {fileID: 0}
  m_PrefabInstance: {fileID: 0}
  m_PrefabAsset: {fileID: 0}
  m_GameObject: {fileID: 0}
  m_Enabled: 1
  m_EditorHideFlags: 0
  m_Script: {fileID: 12395, guid: 0000000000000000e000000000000000, type: 0}
  m_Name: Palette Settings
  m_EditorClassIdentifier: 
  cellSizing: 0
  m_TransparencySortMode: 0
  m_TransparencySortAxis: {x: 0, y: 0, z: 1}
