%YAML 1.1
%TAG !u! tag:unity3d.com,2011:
--- !u!1045 &1
EditorBuildSettings:
  m_ObjectHideFlags: 0
  serializedVersion: 2
  m_Scenes:
  - enabled: 1
    path: Assets/Scenes/Cave Test.unity
    guid: 2cda990e2423bbf4892e6590ba056729
  m_configObjects:
    com.unity.input.settings: {fileID: 11400000, guid: 06ac27ce2db3a3b4f92e1f6e8ab32c13, type: 2}
